{
    "objects": [
        {
            "position": {
                "x": 864,
                "y": 384
            },
            "objectId": 0,
            "z": 0
        },
        {
            "position": {
                "x": 880,
                "y": 400
            },
            "objectId": 0,
            "z": 0
        }
    ],
    "spawn": {
        "x": 864,
        "y": 368
    },
    "collisions": [
        {
            "x": 864,
            "y": 384
        },
        {
            "x": 880,
            "y": 400
        }
    ]
}